joining
…
rm(species_colnames)

nabbs_ma %>%
  filter(Year == 2019) %>%
  left_join(nabbs_species, by = "AOU") %>%
  group_by(AOU, English_Common_Name) %>%
  summarize(SpeciesTotal = sum(SpeciesTotal)) %>% 
  arrange(desc(SpeciesTotal))

`summarise()` has grouped output by 'AOU'. You can override using the `.groups`
argument.

# A tibble: 128 × 3
# Groups:   AOU [128]
   AOU   English_Common_Name    SpeciesTotal
   <chr> <chr>                         <dbl>
 1 07610 American Robin                 1180
 2 05600 Chipping Sparrow                730
 3 07040 Gray Catbird                    676
 4 06240 Red-eyed Vireo                  607
 5 05930 Northern Cardinal               564
 6 06740 Ovenbird                        510
 7 07310 Tufted Titmouse                 508
 8 04980 Red-winged Blackbird            500
 9 07350 Black-capped Chickadee          491
10 05810 Song Sparrow                    487
# … with 118 more rows

nabbs_ma %>%
  filter(Year == 1966) %>%
  left_join(nabbs_species, by = "AOU") %>%
  group_by(AOU, English_Common_Name) %>%
  summarize(SpeciesTotal = sum(SpeciesTotal)) %>% 
  arrange(desc(SpeciesTotal))

`summarise()` has grouped output by 'AOU'. You can override using the `.groups`
argument.

# A tibble: 76 × 3
# Groups:   AOU [76]
   AOU   English_Common_Name  SpeciesTotal
   <chr> <chr>                       <dbl>
 1 04930 European Starling             762
 2 05110 Common Grackle                351
 3 07610 American Robin                317
 4 05870 Eastern Towhee                182
 5 04980 Red-winged Blackbird          178
 6 06882 House Sparrow                 159
 7 04770 Blue Jay                      123
 8 07040 Gray Catbird                  121
 9 05810 Song Sparrow                  107
10 00510 Herring Gull                   98
# … with 66 more rows
…
test <-nabbs_ma %>% filter(Route == "019")

Filtering Joins

Anti

Which bird species have never been counted in MA?

nabbs_species %>%
  anti_join(nabbs_ma, by = "AOU") %>%
  select(English_Common_Name) %>%
  unique()

# A tibble: 571 × 1
   English_Common_Name         
   <chr>                       
 1 Black-bellied Whistling-Duck
 2 Fulvous Whistling-Duck      
 3 Emperor Goose               
 4 Snow Goose                  
 5 (Blue Goose) Snow Goose     
 6 Ross's Goose                
 7 Greater White-fronted Goose 
 8 Brant                       
 9 (Black Brant) Brant         
10 Cackling Goose              
# … with 561 more rows
…
